Project 1: Wrangling, Exploration, Visualization
…
longer_tv_shows %>% group_by(service, year) %>% summarise(mean_duration = mean(duration), 
    mean_duration_hours = mean(duration_hours), mean_imdb = mean(imdb), 
    mean_rt = mean(rotten_tomatoes), mean_average_score = average_score(mean_imdb, 
        mean_rt), count = n()) %>% arrange(desc(mean_average_score)) %>% 
    filter(count > 5)

## # A tibble: 52 x 8
## # Groups:   service [4]
##    service year  mean_duration mean_duration_h mean_imdb mean_rt
##    <chr>   <fct>         <dbl>            <dbl>     <dbl>   <dbl>
##  1 prime_ 2013           48.7            0.812      7.98    74.5
##  2 hulu    2004           43.3            0.722      7.92    73.8
##  3 prime_ 2005           40.6            0.677      7.89    73.1
##  4 hulu    2001           45.8            0.762      7.68    74.8
##  5 hulu    2011           40              0.667      7.80    73.1
##  6 prime_ 2007           49.7            0.829      7.85    70.7
##  7 netflix 2011           44.5            0.742      7.58    73.3
##  8 prime_ 2015           52.5            0.875      7.90    69.8
##  9 netflix 2015           41.7            0.695      7.56    71.8
## 10 prime_ 2008           39.9            0.665      7.85    68.9
## #  with 42 more rows, and 2 more variables: mean_average_score <dbl>,
## #   count <int>
…
